{
    "version": 1,
    "formatters": {
        "default": {
            "()": "uvicorn.logging.DefaultFormatter",
            "fmt": "%(asctime)s %(name)-20s %(levelname)-8s %(message)s"
        },
        "access": {
            "()": "uvicorn.logging.AccessFormatter",
            "fmt": "%(asctime)s %(name)-20s %(levelname)-8s %(client_addr)s - \"%(request_line)s\" %(status_code)s"
        }
    },
    "handlers": {
        "console": {
            "formatter": "default",
            "class": "logging.StreamHandler",
            "stream": "ext://sys.stdout"
        },
        "access": {
            "formatter": "access",
            "class": "logging.StreamHandler",
            "stream": "ext://sys.stdout"
        }
    },
    "disable_existing_loggers": false,
    "loggers": {
        "": {
            "handlers": [
                "console"
            ],
            "level": "INFO",
            "propagate": false
        },
        "uvicorn": {
            "handlers": [
                "console"
            ],
            "level": "INFO"
        },
        "gunicorn": {
            "handlers": [
                "console"
            ],
            "level": "INFO",
            "propagate": false
        },
        "uvicorn.error": {
            "handlers": [
                "console"
            ],
            "level": "INFO",
            "propagate": false
        },
        "uvicorn.access": {
            "handlers": [
                "access"
            ],
            "level": "INFO",
            "propagate": false
        },
        "elasticsearch": {
            "level": "WARN"
        },
        "_protocol.streaming_pull_manager": {
            "level": "WARN"
        },
        "google.api_core.bidi": {
            "level": "WARN"
        }
    },
    "root": {
        "handlers": [
            "console"
        ],
        "level": "INFO"
    }
}
